EV Project
…
$clean_alternative_fuel_vehicle_cafv_eligibility
[1] 0

$electric_range
[1] 0

Lets filter to see which observations have missing data in variable model. We see the entries with missing values for models are from the make Volvo and model year is 2023 and their clean_alternative_fuel_vehicle_cafv_eligibility is equal to Eligibility unknown as battery range has not been researched. For the purpose of this EDA we will not drop these missing values. The missing values could potentially be due to the lack of information on the latest EV Volvo model provided when registering the car.

Code

electric_vehicle_population |> 
  filter(is.na(model))

# A tibble: 104 × 11
   vin_1_10   county    city   state posta…¹ model…² make  model elect…³ clean…⁴
   <chr>      <chr>     <chr>  <chr>   <dbl>   <dbl> <chr> <chr> <chr>   <chr>  
 1 YV4ED3UM9P Kittitas  Ellen… WA      98926    2023 VOLVO <NA>  Batter… Eligib…
 2 YV4ED3UM0P Snohomish Bothe… WA      98021    2023 VOLVO <NA>  Batter… Eligib…
 3 YV4ED3UM2P Clark     Vanco… WA      98685    2023 VOLVO <NA>  Batter… Eligib…
 4 YV4ED3ULXP King      Seatt… WA      98109    2023 VOLVO <NA>  Batter… Eligib…
 5 YV4ED3UM1P Pierce    South… WA      98373    2023 VOLVO <NA>  Batter… Eligib…
 6 YV4ED3UM5P King      Issaq… WA      98027    2023 VOLVO <NA>  Batter… Eligib…
 7 YV4ED3UM6P Snohomish Lake … WA      98258    2023 VOLVO <NA>  Batter… Eligib…
 8 YV4ED3UW5P King      Woodi… WA      98072    2023 VOLVO <NA>  Batter… Eligib…
 9 YV4ED3UW1P King      Seatt… WA      98146    2023 VOLVO <NA>  Batter… Eligib…
10 YV4ED3UM0P King      Vashon WA      98070    2023 VOLVO <NA>  Batter… Eligib…
# … with 94 more rows, 1 more variable: electric_range <dbl>, and abbreviated
#   variable names ¹​postal_code, ²​model_year, ³​electric_vehicle_type,
#   ⁴​clean_alternative_fuel_vehicle_cafv_eligibility
…
